<svg xmlns="http://www.w3.org/2000/svg" width="20" height="20" viewBox="0 0 20 20">
  <metadata><?xpacket begin="﻿" id="W5M0MpCehiHzreSzNTczkc9d"?>
<x:xmpmeta xmlns:x="adobe:ns:meta/" x:xmptk="Adobe XMP Core 5.6-c142 79.160924, 2017/07/13-01:06:39        ">
   <rdf:RDF xmlns:rdf="http://www.w3.org/1999/02/22-rdf-syntax-ns#">
      <rdf:Description rdf:about=""/>
   </rdf:RDF>
</x:xmpmeta>
                                                                                                    
                                                                                                    
                                                                                                    
                                                                                                    
                                                                                                    
                                                                                                    
                                                                                                    
                                                                                                    
                                                                                                    
                                                                                                    
                                                                                                    
                                                                                                    
                                                                                                    
                                                                                                    
                                                                                                    
                                                                                                    
                                                                                                    
                                                                                                    
                                                                                                    
                                                                                                    
                           
<?xpacket end="w"?></metadata>
<defs>
    <style>
      .cls-1 {
        fill: #a95634;
        fill-rule: evenodd;
      }
    </style>
  </defs>
  <path id="Compound_Shape" data-name="Compound Shape" class="cls-1" d="M889.166,1731.58a0.831,0.831,0,0,0-.833.83v2.07A10,10,0,0,0,870,1740a0.834,0.834,0,0,0,1.667,0,8.334,8.334,0,0,1,15.5-4.26H885a0.839,0.839,0,0,0-.833.84,0.831,0.831,0,0,0,.833.83h4.166a0.831,0.831,0,0,0,.834-0.83v-4.17A0.831,0.831,0,0,0,889.166,1731.58Zm0,7.59a0.831,0.831,0,0,0-.833.83,8.334,8.334,0,0,1-15.5,4.26H875a0.839,0.839,0,0,0,.833-0.84,0.831,0.831,0,0,0-.833-0.83h-4.167a0.831,0.831,0,0,0-.833.83v4.17a0.834,0.834,0,0,0,1.667,0v-2.07A10,10,0,0,0,890,1740,0.831,0.831,0,0,0,889.166,1739.17Z" transform="translate(-870 -1730)"/>
</svg>
