<svg xmlns="http://www.w3.org/2000/svg" width="15.031" height="16.97" viewBox="0 0 15.031 16.97">
  <metadata><?xpacket begin="﻿" id="W5M0MpCehiHzreSzNTczkc9d"?>
<x:xmpmeta xmlns:x="adobe:ns:meta/" x:xmptk="Adobe XMP Core 5.6-c138 79.159824, 2016/09/14-01:09:01        ">
   <rdf:RDF xmlns:rdf="http://www.w3.org/1999/02/22-rdf-syntax-ns#">
      <rdf:Description rdf:about=""/>
   </rdf:RDF>
</x:xmpmeta>
                                                                                                    
                                                                                                    
                                                                                                    
                                                                                                    
                                                                                                    
                                                                                                    
                                                                                                    
                                                                                                    
                                                                                                    
                                                                                                    
                                                                                                    
                                                                                                    
                                                                                                    
                                                                                                    
                                                                                                    
                                                                                                    
                                                                                                    
                                                                                                    
                                                                                                    
                                                                                                    
                           
<?xpacket end="w"?></metadata>
<defs>
    <style>
      .cls-1 {
        fill: #a95634;
        fill-rule: evenodd;
      }
    </style>
  </defs>
  <path id="icon_downlaod" data-name="icon downlaod" class="cls-1" d="M437.445,1219.74a0.5,0.5,0,0,0-.455-0.31h-2v-6.9a0.52,0.52,0,0,0-.5-0.54h-2a0.52,0.52,0,0,0-.5.54v6.9h-2a0.5,0.5,0,0,0-.455.31,0.558,0.558,0,0,0,.079.57l3.5,4.25a0.483,0.483,0,0,0,.752,0l3.5-4.25A0.558,0.558,0,0,0,437.445,1219.74Zm1.546,3.93v3.19H427.985v-3.19h-2v4.25a1.029,1.029,0,0,0,1,1.06h13.008a1.028,1.028,0,0,0,1-1.06v-4.25h-2Z" transform="translate(-425.969 -1212)"/>
</svg>
