<svg xmlns="http://www.w3.org/2000/svg" width="24" height="24" viewBox="0 0 24 24">
  <metadata><?xpacket begin="﻿" id="W5M0MpCehiHzreSzNTczkc9d"?>
<x:xmpmeta xmlns:x="adobe:ns:meta/" x:xmptk="Adobe XMP Core 5.6-c138 79.159824, 2016/09/14-01:09:01        ">
   <rdf:RDF xmlns:rdf="http://www.w3.org/1999/02/22-rdf-syntax-ns#">
      <rdf:Description rdf:about=""/>
   </rdf:RDF>
</x:xmpmeta>
                                                                                                    
                                                                                                    
                                                                                                    
                                                                                                    
                                                                                                    
                                                                                                    
                                                                                                    
                                                                                                    
                                                                                                    
                                                                                                    
                                                                                                    
                                                                                                    
                                                                                                    
                                                                                                    
                                                                                                    
                                                                                                    
                                                                                                    
                                                                                                    
                                                                                                    
                                                                                                    
                           
<?xpacket end="w"?></metadata>
<defs>
    <style>
      .cls-1 {
        fill: #f2d8c9;
        fill-rule: evenodd;
      }
    </style>
  </defs>
  <path id="map" class="cls-1" d="M1114.7,1027.8h-2.81l1.2-1.76a8.865,8.865,0,0,0-.7-10.79,7.414,7.414,0,0,0-10.64,0,8.866,8.866,0,0,0-.71,10.78l1.2,1.77h-2.94l-4.3,9.2h24Zm-7.56-10a2.8,2.8,0,1,1-2.75,2.8A2.785,2.785,0,0,1,1107.14,1017.8Zm-7.35,10.8h3l4.28,6.3,4.28-6.3h2.86l3.55,7.6h-21.52Z" transform="translate(-1095 -1013)"/>
</svg>
