<svg xmlns="http://www.w3.org/2000/svg" width="70" height="70" viewBox="0 0 70 70">
  <metadata><?xpacket begin="﻿" id="W5M0MpCehiHzreSzNTczkc9d"?>
<x:xmpmeta xmlns:x="adobe:ns:meta/" x:xmptk="Adobe XMP Core 5.6-c138 79.159824, 2016/09/14-01:09:01        ">
   <rdf:RDF xmlns:rdf="http://www.w3.org/1999/02/22-rdf-syntax-ns#">
      <rdf:Description rdf:about=""/>
   </rdf:RDF>
</x:xmpmeta>
                                                                                                    
                                                                                                    
                                                                                                    
                                                                                                    
                                                                                                    
                                                                                                    
                                                                                                    
                                                                                                    
                                                                                                    
                                                                                                    
                                                                                                    
                                                                                                    
                                                                                                    
                                                                                                    
                                                                                                    
                                                                                                    
                                                                                                    
                                                                                                    
                                                                                                    
                                                                                                    
                           
<?xpacket end="w"?></metadata>
<defs>
    <style>
      .cls-1 {
        fill: #faf6f3;
        fill-rule: evenodd;
      }
    </style>
  </defs>
  <path id="vk" class="cls-1" d="M510,2474a35,35,0,1,0,35,35A35,35,0,0,0,510,2474Zm13.2,39.68a55.016,55.016,0,0,1,3.949,4.22,11.6,11.6,0,0,1,1.413,2.16c0.545,1.12.053,2.35-.892,2.42h-5.873a4.425,4.425,0,0,1-3.742-1.62c-0.812-.88-1.566-1.82-2.348-2.72a5.236,5.236,0,0,0-1.058-1,1.191,1.191,0,0,0-1.955.5,6.886,6.886,0,0,0-.619,2.91c-0.064,1.47-.481,1.86-1.871,1.93a14.369,14.369,0,0,1-8.4-1.92,19.17,19.17,0,0,1-5.655-5.63,77.237,77.237,0,0,1-7.445-14.09c-0.47-1.11-.127-1.71,1.027-1.73q2.875-.06,5.751,0a1.7,1.7,0,0,1,1.6,1.26,38.766,38.766,0,0,0,3.9,7.68,6.536,6.536,0,0,0,1.474,1.72,0.88,0.88,0,0,0,1.519-.48,5.506,5.506,0,0,0,.339-1.61,25.577,25.577,0,0,0-.093-5.64,2.3,2.3,0,0,0-1.887-2.15c-0.561-.11-0.479-0.33-0.206-0.67a2.078,2.078,0,0,1,1.8-.96h6.636c1.046,0.22,1.28.72,1.422,1.84l0,7.83c-0.011.43,0.2,1.72,0.938,2a1.264,1.264,0,0,0,1.324-.69,24.506,24.506,0,0,0,3.74-6.1c0.448-.97.835-1.97,1.21-2.97a1.437,1.437,0,0,1,1.5-1.09l6.39,0.01a3.555,3.555,0,0,1,.565.03c1.077,0.2,1.373.69,1.038,1.81a17.279,17.279,0,0,1-2.539,4.68c-1.067,1.56-2.2,3.08-3.263,4.65C521.912,2511.7,521.99,2512.42,523.2,2513.68Z" transform="translate(-475 -2474)"/>
</svg>
